Trab1/parte_II/mipscpumasterDESVIO/mips-cpu-master/test.vcd
$date
	Mon May  6 17:40:46 2019
$end
$version
	Icarus Verilog
$end
$timescale
	1s
$end
$scope module top $end
$var wire 1 ! clk $end
$scope module CLK $end
$var reg 1 ! out $end
$upscope $end
$scope module CPU $end
$var event 1 " _s185 $end
$var wire 1 # B $end
$var wire 32 $ PC4D_XOR_G [31:0] $end
$var wire 32 % PC4_XOR_G [31:0] $end
$var wire 1 & Pin $end
$var wire 1 ! clk $end
$var wire 1 ' zero_s4 $end
$var wire 1 ( zero_s3 $end
$var wire 5 ) wrreg_s5 [4:0] $end
$var wire 5 * wrreg_s4 [4:0] $end
$var wire 5 + wrreg [4:0] $end
$var wire 32 , wrdata_s5 [31:0] $end
$var wire 5 - shamt [4:0] $end
$var wire 32 . seimm_sl2 [31:0] $end
$var wire 32 / seimm_s3 [31:0] $end
$var wire 32 0 seimm [31:0] $end
$var wire 5 1 rt_s3 [4:0] $end
$var wire 5 2 rt [4:0] $end
$var wire 5 3 rs_s3 [4:0] $end
$var wire 5 4 rs [4:0] $end
$var wire 1 5 regwrite_s5 $end
$var wire 1 6 regwrite_s4 $end
$var wire 1 7 regwrite_s3 $end
$var wire 1 8 regwrite $end
$var wire 1 9 regdst_s3 $end
$var wire 1 : regdst $end
$var wire 32 ; rdata_s5 [31:0] $end
$var wire 32 < rdata [31:0] $end
$var wire 5 = rd_s3 [4:0] $end
$var wire 5 > rd [4:0] $end
$var wire 32 ? pc4_s3 [31:0] $end
$var wire 32 @ pc4_s2 [31:0] $end
$var wire 32 A pc4 [31:0] $end
$var wire 6 B opcode [5:0] $end
$var wire 1 C memwrite_s4 $end
$var wire 1 D memwrite_s3 $end
$var wire 1 E memwrite $end
$var wire 1 F memtoreg_s5 $end
$var wire 1 G memtoreg_s4 $end
$var wire 1 H memtoreg_s3 $end
$var wire 1 I memtoreg $end
$var wire 1 J memread_s4 $end
$var wire 1 K memread_s3 $end
$var wire 1 L memread $end
$var wire 1 M jump_s4 $end
$var wire 1 N jump_s3 $end
$var wire 1 O jump_s2 $end
$var wire 32 P jaddr_s4 [31:0] $end
$var wire 32 Q jaddr_s3 [31:0] $end
$var wire 32 R jaddr_s2 [31:0] $end
$var wire 32 S inst_s2 [31:0] $end
$var wire 32 T inst [31:0] $end
$var wire 16 U imm [15:0] $end
$var wire 6 V funct [5:0] $end
$var wire 1 W flush_s1_fio $end
$var wire 32 X data2_s4 [31:0] $end
$var wire 32 Y data2_s3 [31:0] $end
$var wire 32 Z data2 [31:0] $end
$var wire 32 [ data1_s3 [31:0] $end
$var wire 32 \ data1 [31:0] $end
$var wire 1 ] c_dt1_dt2 $end
$var wire 1 ^ branch_ne_s4 $end
$var wire 1 _ branch_ne_s3 $end
$var wire 1 ` branch_ne_s2 $end
$var wire 1 a branch_eq_s4 $end
$var wire 1 b branch_eq_s3 $end
$var wire 1 c branch_eq_s2 $end
$var wire 32 d baddr_s4 [31:0] $end
$var wire 32 e baddr_s3 [31:0] $end
$var wire 32 f baddr_s2 [31:0] $end
$var wire 1 g alusrc_s3 $end
$var wire 32 h alusrc_data2 [31:0] $end
$var wire 1 i alusrc $end
$var wire 32 j alurslt_s5 [31:0] $end
$var wire 32 k alurslt_s4 [31:0] $end
$var wire 32 l alurslt [31:0] $end
$var wire 2 m aluop_s3 [1:0] $end
$var wire 2 n aluop [1:0] $end
$var wire 4 o aluctl [3:0] $end
$var wire 1 p WRt $end
$var wire 1 q WRp $end
$var wire 1 r Pd $end
$var wire 1 s P $end
$var wire 2 t MUX_B_fio [1:0] $end
$var wire 1 u Hd $end
$var wire 1 v H $end
$var wire 32 w Bdest [31:0] $end
$var reg 6 x clock_counter [5:0] $end
$var reg 1 y flush_s1 $end
$var reg 1 z flush_s2 $end
$var reg 1 { flush_s3 $end
$var reg 2 | forward_a [1:0] $end
$var reg 2 } forward_b [1:0] $end
$var reg 32 ~ fw_data1_s3 [31:0] $end
$var reg 32 !" fw_data2_s3 [31:0] $end
$var reg 2 "" global [1:0] $end
$var reg 32 #" pc [31:0] $end
$var reg 1 $" pcsrc $end
$var reg 1 %" stall_s1_s2 $end
$scope module B_table $end
$var wire 32 &" BdestIN [31:0] $end
$var wire 32 '" PC4d [31:0] $end
$var wire 1 & Pin $end
$var wire 1 ! clk $end
$var wire 32 (" pc4 [31:0] $end
$var wire 1 p WRt $end
$var wire 1 q WRp $end
$var wire 1 s P $end
$var wire 1 v H $end
$var wire 32 )" Bdest [31:0] $end
$upscope $end
$scope module B_unit $end
$var wire 1 # B $end
$var wire 1 ] C $end
$var wire 1 v H $end
$var wire 1 u Hd $end
$var wire 2 *" MUX_B_fio [1:0] $end
$var wire 1 s P $end
$var wire 1 r Pd $end
$var wire 1 q WRp_fio $end
$var wire 1 p WRt_fio $end
$var wire 1 W flush_s1_fio $end
$var reg 2 +" MUX_B [1:0] $end
$var reg 1 q WRp $end
$var reg 1 p WRt $end
$var reg 1 ," flush_s1 $end
$upscope $end
$scope module alu1 $end
$var wire 32 -" a [31:0] $end
$var wire 32 ." b [31:0] $end
$var wire 1 ( zero $end
$var wire 32 /" sub_ab [31:0] $end
$var wire 1 0" slt $end
$var wire 1 1" oflow_sub $end
$var wire 1 2" oflow_add $end
$var wire 1 3" oflow $end
$var wire 4 4" ctl [3:0] $end
$var wire 32 5" add_ab [31:0] $end
$var reg 32 6" out [31:0] $end
$upscope $end
$scope module alu_ctl1 $end
$var wire 2 7" aluop [1:0] $end
$var wire 6 8" funct [5:0] $end
$var reg 4 9" _funct [3:0] $end
$var reg 4 :" aluctl [3:0] $end
$upscope $end
$scope module baddr_s2_s3 $end
$var wire 1 z clear $end
$var wire 1 ! clk $end
$var wire 1 ;" hold $end
$var wire 32 <" in [31:0] $end
$var reg 32 =" out [31:0] $end
$upscope $end
$scope module baddr_s3_s4 $end
$var wire 1 { clear $end
$var wire 1 ! clk $end
$var wire 1 >" hold $end
$var wire 32 ?" in [31:0] $end
$var reg 32 @" out [31:0] $end
$upscope $end
$scope module branch_s2_s3 $end
$var wire 1 z clear $end
$var wire 1 ! clk $end
$var wire 1 A" hold $end
$var wire 2 B" in [1:0] $end
$var reg 2 C" out [1:0] $end
$upscope $end
$scope module branch_s3_s4 $end
$var wire 1 { clear $end
$var wire 1 ! clk $end
$var wire 1 D" hold $end
$var wire 2 E" in [1:0] $end
$var reg 2 F" out [1:0] $end
$upscope $end
$scope module ctl1 $end
$var wire 6 G" opcode [5:0] $end
$var reg 2 H" aluop [1:0] $end
$var reg 1 i alusrc $end
$var reg 1 c branch_eq $end
$var reg 1 ` branch_ne $end
$var reg 1 O jump $end
$var reg 1 L memread $end
$var reg 1 I memtoreg $end
$var reg 1 E memwrite $end
$var reg 1 : regdst $end
$var reg 1 8 regwrite $end
$upscope $end
$scope module dm1 $end
$var wire 7 I" addr [6:0] $end
$var wire 1 ! clk $end
$var wire 1 J rd $end
$var wire 1 C wr $end
$var wire 32 J" wdata [31:0] $end
$var wire 32 K" rdata [31:0] $end
$upscope $end
$scope module im1 $end
$var wire 32 L" addr [31:0] $end
$var wire 1 ! clk $end
$var wire 32 M" data [31:0] $end
$upscope $end
$scope module reg_alurslt $end
$var wire 1 { clear $end
$var wire 1 ! clk $end
$var wire 1 N" hold $end
$var wire 32 O" in [31:0] $end
$var reg 32 P" out [31:0] $end
$upscope $end
$scope module reg_alurslt_s4 $end
$var wire 1 Q" clear $end
$var wire 1 ! clk $end
$var wire 1 R" hold $end
$var wire 32 S" in [31:0] $end
$var reg 32 T" out [31:0] $end
$upscope $end
$scope module reg_data2_s3 $end
$var wire 1 { clear $end
$var wire 1 ! clk $end
$var wire 1 U" hold $end
$var wire 32 V" in [31:0] $end
$var reg 32 W" out [31:0] $end
$upscope $end
$scope module reg_jaddr_s3 $end
$var wire 1 z clear $end
$var wire 1 ! clk $end
$var wire 1 X" hold $end
$var wire 32 Y" in [31:0] $end
$var reg 32 Z" out [31:0] $end
$upscope $end
$scope module reg_jaddr_s4 $end
$var wire 1 { clear $end
$var wire 1 ! clk $end
$var wire 1 [" hold $end
$var wire 32 \" in [31:0] $end
$var reg 32 ]" out [31:0] $end
$upscope $end
$scope module reg_jump_s3 $end
$var wire 1 z clear $end
$var wire 1 ! clk $end
$var wire 1 ^" hold $end
$var wire 1 O in $end
$var reg 1 N out $end
$upscope $end
$scope module reg_jump_s4 $end
$var wire 1 { clear $end
$var wire 1 ! clk $end
$var wire 1 _" hold $end
$var wire 1 N in $end
$var reg 1 M out $end
$upscope $end
$scope module reg_pc4_s2 $end
$var wire 1 `" clear $end
$var wire 1 ! clk $end
$var wire 1 %" hold $end
$var wire 32 a" in [31:0] $end
$var reg 32 b" out [31:0] $end
$upscope $end
$scope module reg_rdata_s4 $end
$var wire 1 c" clear $end
$var wire 1 ! clk $end
$var wire 1 d" hold $end
$var wire 32 e" in [31:0] $end
$var reg 32 f" out [31:0] $end
$upscope $end
$scope module reg_regwrite_s4 $end
$var wire 1 g" clear $end
$var wire 1 ! clk $end
$var wire 1 h" hold $end
$var wire 2 i" in [1:0] $end
$var reg 2 j" out [1:0] $end
$upscope $end
$scope module reg_s2_control $end
$var wire 1 %" clear $end
$var wire 1 ! clk $end
$var wire 1 k" hold $end
$var wire 8 l" in [7:0] $end
$var reg 8 m" out [7:0] $end
$upscope $end
$scope module reg_s2_mem $end
$var wire 1 z clear $end
$var wire 1 ! clk $end
$var wire 1 %" hold $end
$var wire 64 n" in [63:0] $end
$var reg 64 o" out [63:0] $end
$upscope $end
$scope module reg_s2_rt_rd $end
$var wire 1 z clear $end
$var wire 1 ! clk $end
$var wire 1 %" hold $end
$var wire 10 p" in [9:0] $end
$var reg 10 q" out [9:0] $end
$upscope $end
$scope module reg_s2_seimm $end
$var wire 1 z clear $end
$var wire 1 ! clk $end
$var wire 1 %" hold $end
$var wire 32 r" in [31:0] $end
$var reg 32 s" out [31:0] $end
$upscope $end
$scope module reg_s3 $end
$var wire 1 z clear $end
$var wire 1 ! clk $end
$var wire 1 t" hold $end
$var wire 4 u" in [3:0] $end
$var reg 4 v" out [3:0] $end
$upscope $end
$scope module reg_wrreg $end
$var wire 1 { clear $end
$var wire 1 ! clk $end
$var wire 1 w" hold $end
$var wire 5 x" in [4:0] $end
$var reg 5 y" out [4:0] $end
$upscope $end
$scope module reg_wrreg_s4 $end
$var wire 1 z" clear $end
$var wire 1 ! clk $end
$var wire 1 {" hold $end
$var wire 5 |" in [4:0] $end
$var reg 5 }" out [4:0] $end
$upscope $end
$scope module reg_zero_s3_s4 $end
$var wire 1 ~" clear $end
$var wire 1 ! clk $end
$var wire 1 !# hold $end
$var wire 1 ( in $end
$var reg 1 ' out $end
$upscope $end
$scope module regm1 $end
$var wire 1 ! clk $end
$var wire 32 "# data1 [31:0] $end
$var wire 32 ## data2 [31:0] $end
$var wire 5 $# read1 [4:0] $end
$var wire 5 %# read2 [4:0] $end
$var wire 1 5 regwrite $end
$var wire 32 &# wrdata [31:0] $end
$var wire 5 '# wrreg [4:0] $end
$var reg 32 (# _data1 [31:0] $end
$var reg 32 )# _data2 [31:0] $end
$upscope $end
$scope module regr_HP $end
$var wire 1 y clear $end
$var wire 1 ! clk $end
$var wire 1 %" hold $end
$var wire 2 *# in [1:0] $end
$var reg 2 +# out [1:0] $end
$upscope $end
$scope module regr_im_s2 $end
$var wire 1 y clear $end
$var wire 1 ! clk $end
$var wire 1 %" hold $end
$var wire 32 ,# in [31:0] $end
$var reg 32 -# out [31:0] $end
$upscope $end
$scope module regr_pc4_s2 $end
$var wire 1 y clear $end
$var wire 1 ! clk $end
$var wire 1 %" hold $end
$var wire 32 .# in [31:0] $end
$var reg 32 /# out [31:0] $end
$upscope $end
$scope module regr_s2_rs $end
$var wire 1 0# clear $end
$var wire 1 ! clk $end
$var wire 1 %" hold $end
$var wire 5 1# in [4:0] $end
$var reg 5 2# out [4:0] $end
$upscope $end
$upscope $end
$upscope $end
$enddefinitions $end
#0
$dumpvars
bx 2#
bx 1#
00#
bx /#
b100 .#
bx -#
b100000000010000000000000000000 ,#
bx +#
b0x *#
bx )#
bx (#
bx '#
bx &#
bx %#
bx $#
bx ##
bx "#
0!#
0~"
bx }"
bx |"
0{"
0z"
bx y"
bx x"
0w"
bx v"
bx u"
0t"
bx s"
bx r"
bx q"
bx p"
bx o"
bx n"
bx m"
bx l"
0k"
bx j"
bx i"
0h"
0g"
bx f"
bx e"
0d"
0c"
bx b"
bx a"
0`"
0_"
0^"
bx ]"
bx \"
0["
bx Z"
b0xxxxxxxxxxxxxxxxxxxxxxxxxx00 Y"
0X"
bx W"
bx V"
0U"
bx T"
bx S"
0R"
0Q"
bx P"
bx O"
0N"
b100000000010000000000000000000 M"
b0 L"
bx K"
bx J"
bx I"
bx H"
bx G"
bx F"
bx E"
0D"
bx C"
bx B"
0A"
bx @"
bx ?"
0>"
bx ="
bx <"
0;"
bx :"
bx 9"
bx 8"
bx 7"
bx 6"
bx 5"
bx 4"
x3"
x2"
x1"
x0"
bx /"
bx ."
bx -"
x,"
bx +"
bx *"
bx )"
b100 ("
bx '"
bx &"
x%"
x$"
b0 #"
b0 ""
bx !"
bx ~
bx }
bx |
x{
xz
xy
b1 x
bx w
0v
xu
bx t
xs
xr
xq
xp
bx o
bx n
bx m
bx l
bx k
bx j
xi
bx h
xg
bx f
bx e
bx d
xc
xb
xa
x`
x_
x^
x]
bx \
bx [
bx Z
bx Y
bx X
xW
bx V
bx U
b100000000010000000000000000000 T
bx S
b0xxxxxxxxxxxxxxxxxxxxxxxxxx00 R
bx Q
bx P
xO
xN
xM
xL
xK
xJ
xI
xH
xG
xF
xE
xD
xC
bx B
b100 A
bx @
bx ?
bx >
bx =
bx <
bx ;
x:
x9
x8
x7
x6
x5
bx 4
bx 3
bx 2
bx 1
bx 0
bx /
bx00 .
bx -
bx ,
bx +
bx *
bx )
x(
x'
x&
b100 %
bx $
x#
1"
1!
$end
#1
0!
#2
0{
0z
0y
b0 *#
0s
0W
0,"
0p
0q
b0 t
b0 *"
b0 +"
0%"
0O
18
0:
0E
0I
0L
0`
b0 B"
0#
0c
1i
b11 l"
b0 n
b0 H"
b100 f
b100 &"
b100 <"
b0 .
0]
b1000 Z
b1000 ##
b1000 )#
b1000 n"
b0 \
b0 "#
b0 (#
b100 $
b100 '"
b0 0
b0 r"
b1000000000000000000000 R
b1000000000000000000000 Y"
b0 -
b0 U
b0 >
b100000000 p"
b1000 2
b1000 %#
b0 4
b0 $#
b0 1#
b1000 B
b1000 G"
0u
b1000 %
b1000 ("
b100000000010010000000000000001 T
b100000000010010000000000000001 M"
b100000000010010000000000000001 ,#
b100 @
b100 a"
b100 /#
b100000000010000000000000000000 S
b100000000010000000000000000000 -#
b0x +#
b0xxxxxxxxxxxxxxxxxxxxxxxxxx00 Q
b0xxxxxxxxxxxxxxxxxxxxxxxxxx00 Z"
b0xxxxxxxxxxxxxxxxxxxxxxxxxx00 \"
b10 x
b1000 A
b1000 .#
b100 #"
b100 L"
1!
#3
0!
#4
1(
b0 O"
b0 l
b0 6"
b0 }
b0 |
03"
00"
02"
01"
b0 /"
b0 5"
b0 h
b0 ."
b10 o
b10 4"
b10 :"
b1000 +
b1000 x"
b10 9"
b1000 !"
b1000 V"
b0 ~
b0 -"
0&
b100 .
b1001 n"
b1001 Z
b1001 ##
b1001 )#
b1100 %
b1100 ("
b100000000010100000000000000010 T
b100000000010100000000000000010 M"
b100000000010100000000000000010 ,#
0_
b0 E"
0b
1g
17
b0 m
b0 7"
0H
0D
b1000 u"
0K
09
b0 =
b1000 1
b0 V
b0 8"
b1000 Y
b0 [
0r
b1 0
b1 r"
b1001000000000000000100 R
b1001000000000000000100 Y"
b1 U
b100100000 p"
b1001 2
b1001 %#
b1000 $
b1000 '"
b1100 A
b1100 .#
b1000 #"
b1000 L"
b11 x
b0xxxxxxxxxxxxxxxxxxxxxxxxxx00 P
b0xxxxxxxxxxxxxxxxxxxxxxxxxx00 ]"
b1000000000000000000000 Q
b1000000000000000000000 Z"
b1000000000000000000000 \"
0N
b100 e
b100 ="
b100 ?"
b0 C"
b11 m"
b100 ?
b100 b"
b100000000 q"
b0 /
b0 s"
b1000 o"
b0 3
b0 2#
b0 +#
b100000000010010000000000000001 S
b100000000010010000000000000001 -#
b1100 f
b1100 &"
b1100 <"
b1000 @
b1000 a"
b1000 /#
1!
#5
0!
#6
0(
b1 O"
b1 l
b1 6"
10"
11"
b1000 .
b1010 n"
b1010 Z
b1010 ##
b1010 )#
b0 9"
b1001 +
b1001 x"
b0 <
b0 K"
b0 e"
b0 I"
b1001 !"
b1001 V"
b1100 $
b1100 '"
b10 0
b10 r"
b1010000000000000001000 R
b1010000000000000001000 Y"
b10 U
b101000000 p"
b1010 2
b1010 %#
b1001 Y
b1 V
b1 8"
b11111111111111111111111111111111 /"
b1 5"
b1 h
b1 ."
b1001 1
0C
0J
0G
b10 i"
16
b0 k
b0 S"
0^
0a
b10000 %
b10000 ("
b100000000010110000000000000011 T
b100000000010110000000000000011 M"
b100000000010110000000000000011 ,#
b10100 f
b10100 &"
b10100 <"
b1100 @
b1100 a"
b1100 /#
b100000000010100000000000000010 S
b100000000010100000000000000010 -#
b1001 o"
b1 /
b1 s"
b100100000 q"
b1000 ?
b1000 b"
b1100 e
b1100 ="
b1100 ?"
b1001000000000000000100 Q
b1001000000000000000100 Z"
b1001000000000000000100 \"
b1000 v"
1'
b0 P"
b1000 X
b1000 J"
b1000 W"
b1000 *
b1000 y"
b1000 |"
b0 F"
b100 d
b100 @"
0M
b1000000000000000000000 P
b1000000000000000000000 ]"
b100 x
b10000 A
b10000 .#
b1100 #"
b1100 L"
1!
#7
0!
#8
b10 O"
b10 l
b10 6"
b1010 +
b1010 x"
b110 9"
b1010 !"
b1010 V"
b1100 .
b10100 %
b10100 ("
b100000000011000000000000000100 T
b100000000011000000000000000100 M"
b100000000011000000000000000100 ,#
b1011 n"
b1011 Z
b1011 ##
b1011 )#
b0 ,
b0 &#
0F
15
b1 k
b1 S"
b1010 1
b10 V
b10 8"
b11111111111111111111111111111110 /"
b10 5"
b10 h
b10 ."
b1010 Y
b11 0
b11 r"
b1011000000000000001100 R
b1011000000000000001100 Y"
b11 U
b101100000 p"
b1011 2
b1011 %#
b10000 $
b10000 '"
b10100 A
b10100 .#
b10000 #"
b10000 L"
b101 x
b1000 )
b1000 }"
b1000 '#
b0 j
b0 T"
b0 ;
b0 f"
b10 j"
b1001000000000000000100 P
b1001000000000000000100 ]"
b1100 d
b1100 @"
b1001 *
b1001 y"
b1001 |"
b1001 X
b1001 J"
b1001 W"
b1 P"
0'
b1010000000000000001000 Q
b1010000000000000001000 Z"
b1010000000000000001000 \"
b10100 e
b10100 ="
b10100 ?"
b1100 ?
b1100 b"
b101000000 q"
b10 /
b10 s"
b1010 o"
b100000000010110000000000000011 S
b100000000010110000000000000011 -#
b11100 f
b11100 &"
b11100 <"
b10000 @
b10000 a"
b10000 /#
1!
#9
0!
#10
b11 O"
b11 l
b11 6"
b0 }
b10000 .
b0 9"
b1011 +
b1011 x"
b1100 n"
b1100 Z
b1100 ##
b1100 )#
b1011 !"
b1011 V"
b10100 $
b10100 '"
b100 0
b100 r"
b1100000000000000010000 R
b1100000000000000010000 Y"
b100 U
b110000000 p"
b1100 2
b1100 %#
b1011 Y
b11 V
b11 8"
b11111111111111111111111111111101 /"
b11 5"
b11 h
b11 ."
b1011 1
b10 k
b10 S"
b1 ,
b1 &#
b11000 %
b11000 ("
b100000000011010000000000000101 T
b100000000011010000000000000101 M"
b100000000011010000000000000101 ,#
b100100 f
b100100 &"
b100100 <"
b10100 @
b10100 a"
b10100 /#
b100000000011000000000000000100 S
b100000000011000000000000000100 -#
b1011 o"
b11 /
b11 s"
b101100000 q"
b10000 ?
b10000 b"
b11100 e
b11100 ="
b11100 ?"
b1011000000000000001100 Q
b1011000000000000001100 Z"
b1011000000000000001100 \"
b10 P"
b1010 X
b1010 J"
b1010 W"
b1010 *
b1010 y"
b1010 |"
b10100 d
b10100 @"
b1010000000000000001000 P
b1010000000000000001000 ]"
b1 j
b1 T"
b1001 )
b1001 }"
b1001 '#
b110 x
b11000 A
b11000 .#
b10100 #"
b10100 L"
1!
#11
0!
#12
b100 O"
b100 l
b100 6"
b1100 +
b1100 x"
b1100 !"
b1100 V"
b10100 .
b11100 %
b11100 ("
b100000000011100000000000000110 T
b100000000011100000000000000110 M"
b100000000011100000000000000110 ,#
b10 ,
b10 &#
b11 k
b11 S"
b1100 1
b100 V
b100 8"
b11111111111111111111111111111100 /"
b100 5"
b100 h
b100 ."
b1100 Y
b1101 n"
b1101 Z
b1101 ##
b1101 )#
b101 0
b101 r"
b1101000000000000010100 R
b1101000000000000010100 Y"
b101 U
b110100000 p"
b1101 2
b1101 %#
b11000 $
b11000 '"
b11100 A
b11100 .#
b11000 #"
b11000 L"
b111 x
b1010 )
b1010 }"
b1010 '#
b10 j
b10 T"
b1011000000000000001100 P
b1011000000000000001100 ]"
b11100 d
b11100 @"
b1011 *
b1011 y"
b1011 |"
b1011 X
b1011 J"
b1011 W"
b11 P"
b1100000000000000010000 Q
b1100000000000000010000 Z"
b1100000000000000010000 \"
b100100 e
b100100 ="
b100100 ?"
b10100 ?
b10100 b"
b110000000 q"
b100 /
b100 s"
b1100 o"
b100000000011010000000000000101 S
b100000000011010000000000000101 -#
b101100 f
b101100 &"
b101100 <"
b11000 @
b11000 a"
b11000 /#
1!
#13
0!
#14
b101 O"
b101 l
b101 6"
b0 }
b100 <
b100 K"
b100 e"
b11000 .
b1 9"
b1101 +
b1101 x"
b1 I"
b1110 n"
b1110 Z
b1110 ##
b1110 )#
b1101 !"
b1101 V"
b11100 $
b11100 '"
b110 0
b110 r"
b1110000000000000011000 R
b1110000000000000011000 Y"
b110 U
b111000000 p"
b1110 2
b1110 %#
b1101 Y
b101 V
b101 8"
b11111111111111111111111111111011 /"
b101 5"
b101 h
b101 ."
b1101 1
b100 k
b100 S"
b11 ,
b11 &#
b100000 %
b100000 ("
b100000000011110000000000000111 T
b100000000011110000000000000111 M"
b100000000011110000000000000111 ,#
b110100 f
b110100 &"
b110100 <"
b11100 @
b11100 a"
b11100 /#
b100000000011100000000000000110 S
b100000000011100000000000000110 -#
b1101 o"
b101 /
b101 s"
b110100000 q"
b11000 ?
b11000 b"
b101100 e
b101100 ="
b101100 ?"
b1101000000000000010100 Q
b1101000000000000010100 Z"
b1101000000000000010100 \"
b100 P"
b1100 X
b1100 J"
b1100 W"
b1100 *
b1100 y"
b1100 |"
b100100 d
b100100 @"
b1100000000000000010000 P
b1100000000000000010000 ]"
b11 j
b11 T"
b1011 )
b1011 }"
b1011 '#
b1000 x
b100000 A
b100000 .#
b11100 #"
b11100 L"
1!
#15
0!
#16
b110 O"
b110 l
b110 6"
b1110 +
b1110 x"
b1101 9"
b1110 !"
b1110 V"
b11100 .
b100100 %
b100100 ("
b1010010100100100000100000 T
b1010010100100100000100000 M"
b1010010100100100000100000 ,#
b100 ,
b100 &#
b101 k
b101 S"
b1110 1
b110 V
b110 8"
b11111111111111111111111111111010 /"
b110 5"
b110 h
b110 ."
b1110 Y
b1111 n"
b1111 Z
b1111 ##
b1111 )#
b111 0
b111 r"
b1111000000000000011100 R
b1111000000000000011100 Y"
b111 U
b111100000 p"
b1111 2
b1111 %#
b100000 $
b100000 '"
b100100 A
b100100 .#
b100000 #"
b100000 L"
b1001 x
b1100 )
b1100 }"
b1100 '#
b100 j
b100 T"
b100 ;
b100 f"
b1101000000000000010100 P
b1101000000000000010100 ]"
b101100 d
b101100 @"
b1101 *
b1101 y"
b1101 |"
b1101 X
b1101 J"
b1101 W"
b101 P"
b1110000000000000011000 Q
b1110000000000000011000 Z"
b1110000000000000011000 \"
b110100 e
b110100 ="
b110100 ?"
b11100 ?
b11100 b"
b111000000 q"
b110 /
b110 s"
b1110 o"
b100000000011110000000000000111 S
b100000000011110000000000000111 -#
b111100 f
b111100 &"
b111100 <"
b100000 @
b100000 a"
b100000 /#
1!
#17
0!
#18
1:
0i
b10001010 l"
b10 n
b10 H"
b111 O"
b111 l
b111 6"
b0 }
1&
b10010000010000000 .
b1100 9"
b1111 +
b1111 x"
1]
b10 Z
b10 ##
b10 )#
b1000000000000000000000000000000010 n"
b10 \
b10 "#
b10 (#
b1111 !"
b1111 V"
b100100 $
b100100 '"
b100100000100000 0
b100100000100000 r"
b101001010010010000010000000 R
b101001010010010000010000000 Y"
b100100000100000 U
b1001 >
b101001001 p"
b1010 2
b1010 %#
b1010 4
b1010 $#
b1010 1#
b0 B
b0 G"
b1111 Y
b111 V
b111 8"
b11111111111111111111111111111001 /"
b111 5"
b111 h
b111 ."
b1111 1
b110 k
b110 S"
b101 ,
b101 &#
b101000 %
b101000 ("
b1011010110101000000100000 T
b1011010110101000000100000 M"
b1011010110101000000100000 ,#
b10010000010100100 f
b10010000010100100 &"
b10010000010100100 <"
b100100 @
b100100 a"
b100100 /#
b1010010100100100000100000 S
b1010010100100100000100000 -#
b1111 o"
b111 /
b111 s"
b111100000 q"
b100000 ?
b100000 b"
b111100 e
b111100 ="
b111100 ?"
b1111000000000000011100 Q
b1111000000000000011100 Z"
b1111000000000000011100 \"
b110 P"
b1110 X
b1110 J"
b1110 W"
b1110 *
b1110 y"
b1110 |"
b110100 d
b110100 @"
b1110000000000000011000 P
b1110000000000000011000 ]"
b101 j
b101 T"
b1101 )
b1101 }"
b1101 '#
b1010 x
b101000 A
b101000 .#
b100100 #"
b100100 L"
1!
#19
0!
#20
b100 O"
b100 l
b100 6"
b0 }
00"
01"
b1001 +
b1001 x"
b10 9"
b10 !"
b10 V"
b10 ~
b10 -"
b10100000010000000 .
b101100 %
b101100 ("
b1111011010101100000100010 T
b1111011010101100000100010 M"
b1111011010101100000100010 ,#
b110 ,
b110 &#
b111 k
b111 S"
0g
b10 m
b10 7"
19
b1001 =
b1010 1
b100000 V
b100000 8"
b0 /"
b100 5"
b10 h
b10 ."
b10 Y
b10 [
b11 Z
b11 ##
b11 )#
b1100000000000000000000000000000011 n"
1]
b11 \
b11 "#
b11 (#
b101000000100000 0
b101000000100000 r"
b101101011010100000010000000 R
b101101011010100000010000000 Y"
b101000000100000 U
b1010 >
b101101010 p"
b1011 2
b1011 %#
b1011 4
b1011 $#
b1011 1#
b101000 $
b101000 '"
b101100 A
b101100 .#
b101000 #"
b101000 L"
b1011 x
b1110 )
b1110 }"
b1110 '#
b110 j
b110 T"
b1111000000000000011100 P
b1111000000000000011100 ]"
b111100 d
b111100 @"
b1111 *
b1111 y"
b1111 |"
b1111 X
b1111 J"
b1111 W"
b111 P"
b101001010010010000010000000 Q
b101001010010010000010000000 Z"
b101001010010010000010000000 \"
b10010000010100100 e
b10010000010100100 ="
b10010000010100100 ?"
b10001010 m"
b100100 ?
b100100 b"
b101001001 q"
b100100000100000 /
b100100000100000 s"
b1000000000000000000000000000000010 o"
b1010 3
b1010 2#
b1011010110101000000100000 S
b1011010110101000000100000 -#
b10100000010101000 f
b10100000010101000 &"
b10100000010101000 <"
b101000 @
b101000 a"
b101000 /#
1!
#21
0!
#22
b110 O"
b110 l
b110 6"
0&
b11 h
b11 ."
b10110000010001000 .
b1010 +
b1010 x"
b101 Z
b101 ##
b101 )#
b11100000000000000000000000000000101 n"
0]
b111 \
b111 "#
b111 (#
b0 /"
b110 5"
b11 ~
b11 -"
b11 !"
b11 V"
b101100 $
b101100 '"
b101100000100010 0
b101100000100010 r"
b111101101010110000010001000 R
b111101101010110000010001000 Y"
b101100000100010 U
b1011 >
b110101011 p"
b1101 2
b1101 %#
b1111 4
b1111 $#
b1111 1#
b11 Y
b11 [
b1010 =
b1011 1
b100 k
b100 S"
b111 ,
b111 &#
b110000 %
b110000 ("
b10001001011001111111111111100 T
b10001001011001111111111111100 M"
b10001001011001111111111111100 ,#
b10110000010110100 f
b10110000010110100 &"
b10110000010110100 <"
b101100 @
b101100 a"
b101100 /#
b1111011010101100000100010 S
b1111011010101100000100010 -#
b1011 3
b1011 2#
b1100000000000000000000000000000011 o"
b101000000100000 /
b101000000100000 s"
b101101010 q"
b101000 ?
b101000 b"
b10100000010101000 e
b10100000010101000 ="
b10100000010101000 ?"
b101101011010100000010000000 Q
b101101011010100000010000000 Z"
b101101011010100000010000000 \"
b100 P"
b10 X
b10 J"
b10 W"
b1001 *
b1001 y"
b1001 |"
b10010000010100100 d
b10010000010100100 @"
b101001010010010000010000000 P
b101001010010010000010000000 ]"
b111 j
b111 T"
b1111 )
b1111 }"
b1111 '#
b1100 x
b110000 A
b110000 .#
b101100 #"
b101100 L"
1!
#23
0!
